[
  {
    "name": "theme_info",
    "theme_name": "Themekit template theme",
    "theme_version": "1.0.0",
    "theme_author": "Shopify",
    "theme_documentation_url": "https://github.com/Shopify/themekit",
    "theme_support_url": "https://github.com/Shopify/themekit/issues"
  },

  {
    "name":"Coding Test",
    "settings":[{
        "type": "text",
        "id": "random_title",
        "label": "Random Title",
        "default": "This is a random title for the coding test"
    }
    ]
  }
]
